{
  "id": "510861682396232",
  "created_time": "2015-07-02T13:17:36+0000",
  "from": {
    "name": "The Best Movie Lines",
    "category": "Movie",
    "id": "116538878495183"
  },
  "height": 720,
  "icon": "https://fbstatic-a.akamaihd.net/rsrc.php/v2/yz/r/StEh3RhPvjk.gif",
  "images": [
    {
      "height": 919,
      "source": "https://scontent.xx.fbcdn.net/hphotos-xpt1/v/t1.0-9/11698579_510861682396232_7559855738399444692_n.jpg?oh=59003bb58b693e10e5ce947f01d55138&oe=5629144C",
      "width": 844
    },
    {
      "height": 783,
      "source": "https://scontent.xx.fbcdn.net/hphotos-xpt1/v/t1.0-9/p720x720/11698579_510861682396232_7559855738399444692_n.jpg?oh=0a84276a9e8ea6c7adcd3ae2fc323301&oe=562DE33D",
      "width": 720
    },
    {
      "height": 653,
      "source": "https://scontent.xx.fbcdn.net/hphotos-xpt1/v/t1.0-9/p600x600/11698579_510861682396232_7559855738399444692_n.jpg?oh=7202886233109847ba129ccb154789d8&oe=5618F352",
      "width": 600
    },
    {
      "height": 522,
      "source": "https://scontent.xx.fbcdn.net/hphotos-xpt1/v/t1.0-9/p480x480/11698579_510861682396232_7559855738399444692_n.jpg?oh=74b6acc475f07a212a828b4b235c539f&oe=562DA6B2",
      "width": 480
    },
    {
      "height": 348,
      "source": "https://scontent.xx.fbcdn.net/hphotos-xpt1/v/t1.0-9/p320x320/11698579_510861682396232_7559855738399444692_n.jpg?oh=534dd18e644c3fc09731ed6c2f71422b&oe=565CD8E8",
      "width": 320
    },
    {
      "height": 540,
      "source": "https://scontent.xx.fbcdn.net/hphotos-xpt1/v/t1.0-9/p180x540/11698579_510861682396232_7559855738399444692_n.jpg?oh=8dc67389e40905fb6163bc26010edaf0&oe=565A5655",
      "width": 495
    },
    {
      "height": 141,
      "source": "https://scontent.xx.fbcdn.net/hphotos-xpt1/v/t1.0-9/p130x130/11698579_510861682396232_7559855738399444692_n.jpg?oh=9ee8809709cf410cd669a24b708a5eeb&oe=561CBE87",
      "width": 130
    },
    {
      "height": 225,
      "source": "https://scontent.xx.fbcdn.net/hphotos-xpt1/v/t1.0-9/p75x225/11698579_510861682396232_7559855738399444692_n.jpg?oh=20bae61c753dc370a56838e2b904887c&oe=561FE704",
      "width": 206
    }
  ],
  "link": "https://www.facebook.com/TheBestMovieLines/photos/a.116543458494725.23025.116538878495183/510861682396232/?type=1",
  "name": "- Taxi Driver 1976",
  "picture": "https://scontent.xx.fbcdn.net/hphotos-xpt1/v/t1.0-9/s130x130/11698579_510861682396232_7559855738399444692_n.jpg?oh=96900563ba452b51e0b3e974b9faf3c6&oe=56161294",
  "source": "https://scontent.xx.fbcdn.net/hphotos-xpt1/v/t1.0-9/s720x720/11698579_510861682396232_7559855738399444692_n.jpg?oh=3221d403c6fdd919af0ec57b5d6c8350&oe=56243E2E",
  "updated_time": "2015-07-02T13:17:36+0000",
  "width": 661,
  "comments": {
    "data": [
      {
        "id": "510861682396232_510862842396116",
        "can_remove": false,
        "created_time": "2015-07-02T13:23:20+0000",
        "from": {
          "id": "10155054504770261",
          "name": "Sriman Ravi Narayan"
        },
        "like_count": 21,
        "message": "One of the 'The Best Movie Lines' ever! :)",
        "user_likes": false
      },
      {
        "id": "510861682396232_510865419062525",
        "can_remove": false,
        "created_time": "2015-07-02T13:34:56+0000",
        "from": {
          "id": "10201307626933074",
          "name": "Ayush Chaurasia"
        },
        "like_count": 15,
        "message": "Listen you fuckers, you screwheads. Here's a man who would not take it anymore. Who would not let- Listen you fuckers, you screwheads. Here is a man who would not take it anymore. A man who stood up against the scum, the cunts, the dogs, the filth, the shit. Here is someone who stood up.  Here is.....",
        "user_likes": false
      },
      {
        "id": "510861682396232_510862585729475",
        "can_remove": false,
        "created_time": "2015-07-02T13:21:23+0000",
        "from": {
          "id": "911624582187759",
          "name": "Ahmed Hamza"
        },
        "like_count": 1,
        "message": "Kareem Adel the reason behind Taxi Driver!",
        "message_tags": [
          {
            "id": "323664821168055",
            "length": 11,
            "name": "Kareem Adel",
            "offset": 0,
            "type": "user"
          }
        ],
        "user_likes": false
      },
      {
        "id": "510861682396232_510862635729470",
        "can_remove": false,
        "created_time": "2015-07-02T13:21:35+0000",
        "from": {
          "id": "439346102893507",
          "name": "Ramakrishnan Palani"
        },
        "like_count": 1,
        "message": "If something follows u always u r not alone...",
        "user_likes": false
      },
      {
        "id": "510861682396232_510864942395906",
        "can_remove": false,
        "created_time": "2015-07-02T13:33:19+0000",
        "from": {
          "id": "786542958091268",
          "name": "Hatem H-Ragheb"
        },
        "like_count": 1,
        "message": "i want to tell you this is my wife but iam aint live here u know who lives here? ...  a nigga lives here",
        "user_likes": false
      },
      {
        "id": "510861682396232_510948702387530",
        "can_remove": false,
        "created_time": "2015-07-02T18:24:03+0000",
        "from": {
          "id": "875775635773299",
          "name": "Omar Adel"
        },
        "like_count": 1,
        "message": "Ahmed Rady dah elfilm elly 2oltlak 3alleh lw faker :O",
        "message_tags": [
          {
            "id": "611552095618100",
            "length": 10,
            "name": "Ahmed Rady",
            "offset": 0,
            "type": "user"
          }
        ],
        "user_likes": false
      },
      {
        "id": "510861682396232_511516058997461",
        "can_remove": false,
        "created_time": "2015-07-03T17:29:54+0000",
        "from": {
          "id": "390780421081147",
          "name": "Alina Khan"
        },
        "like_count": 0,
        "message": "Each and everyone of us can relate to this phrase in some phase of their life. Touchy.",
        "user_likes": false
      },
      {
        "id": "510861682396232_510893332393067",
        "can_remove": false,
        "created_time": "2015-07-02T15:31:59+0000",
        "from": {
          "id": "748710475206205",
          "name": "Amit Kumar Mishra"
        },
        "like_count": 0,
        "message": "Robert Deniro you're  a star man, oh sorry you're the moon, oh sorry you're the galaxy !! fuck i cant decide !! :P",
        "message_tags": [
          {
            "id": "110534922300154",
            "length": 13,
            "name": "Robert Deniro",
            "offset": 0,
            "type": "page"
          }
        ],
        "user_likes": false
      },
      {
        "id": "510861682396232_510867875728946",
        "can_remove": false,
        "created_time": "2015-07-02T13:45:58+0000",
        "from": {
          "id": "741714135879330",
          "name": "Aezaz Malic"
        },
        "like_count": 0,
        "message": "Travis bickle.Gods lonely man !",
        "user_likes": false
      },
      {
        "id": "510861682396232_510891925726541",
        "can_remove": false,
        "created_time": "2015-07-02T15:23:46+0000",
        "from": {
          "id": "10203644125276014",
          "name": "Wajeeha Sarwar"
        },
        "like_count": 0,
        "message": "Just like me 😔",
        "user_likes": false
      },
      {
        "id": "510861682396232_510882962394104",
        "can_remove": false,
        "created_time": "2015-07-02T14:45:23+0000",
        "from": {
          "id": "705979269507829",
          "name": "Umme Ahmed Qureshi"
        },
        "like_count": 0,
        "message": "De'Niro❤️ taxi driver:)",
        "user_likes": false
      },
      {
        "id": "510861682396232_510883559060711",
        "can_remove": false,
        "created_time": "2015-07-02T14:48:32+0000",
        "from": {
          "id": "431948226949267",
          "name": "Maria Tameez"
        },
        "like_count": 0,
        "message": "I'm God's lonely man",
        "user_likes": false
      },
      {
        "id": "510861682396232_510982855717448",
        "can_remove": false,
        "created_time": "2015-07-02T19:05:24+0000",
        "from": {
          "id": "710954462324477",
          "name": "Sristee Malakar"
        },
        "like_count": 0,
        "message": "n i luv u",
        "user_likes": false
      },
      {
        "id": "510861682396232_510931352389265",
        "can_remove": false,
        "created_time": "2015-07-02T16:58:51+0000",
        "from": {
          "id": "904075866285125",
          "name": "Haji Patel"
        },
        "like_count": 0,
        "message": "You talkin' to me?",
        "user_likes": false
      },
      {
        "id": "510861682396232_510862665729467",
        "can_remove": false,
        "created_time": "2015-07-02T13:21:43+0000",
        "from": {
          "id": "832562210092046",
          "name": "Sandeep Jaluthria"
        },
        "like_count": 0,
        "message": "this is an epic from Scorsese",
        "user_likes": false
      },
      {
        "id": "510861682396232_510886329060434",
        "can_remove": false,
        "created_time": "2015-07-02T14:58:34+0000",
        "from": {
          "id": "680320728748841",
          "name": "Sri Vatsav"
        },
        "like_count": 2,
        "message": "How's your drivin' record? - It's real clean, like my conscience.",
        "user_likes": false
      },
      {
        "id": "510861682396232_510985722383828",
        "can_remove": false,
        "created_time": "2015-07-02T19:28:02+0000",
        "from": {
          "id": "1426993524225409",
          "name": "Syeda Madiha"
        },
        "like_count": 1,
        "message": "We hav to watch this one ! Fahad Anwer",
        "message_tags": [
          {
            "id": "915552691790788",
            "length": 11,
            "name": "Fahad Anwer",
            "offset": 27,
            "type": "user"
          }
        ],
        "user_likes": false
      },
      {
        "id": "510861682396232_510865025729231",
        "can_remove": false,
        "created_time": "2015-07-02T13:33:38+0000",
        "from": {
          "id": "646876288694847",
          "name": "John Kellner"
        },
        "like_count": 0,
        "message": "They cannot touch her <3",
        "user_likes": false
      },
      {
        "id": "510861682396232_510917919057275",
        "can_remove": false,
        "created_time": "2015-07-02T16:22:24+0000",
        "from": {
          "id": "475405319268932",
          "name": "Najiee Ul Rhaman"
        },
        "like_count": 0,
        "message": "Thats  Alot oF AlonenEss..!!",
        "user_likes": false
      },
      {
        "id": "510861682396232_510865459062521",
        "can_remove": false,
        "created_time": "2015-07-02T13:35:17+0000",
        "from": {
          "id": "10204592874210597",
          "name": "Vishal Tripathi"
        },
        "like_count": 0,
        "message": "Amen brother",
        "user_likes": false
      },
      {
        "id": "510861682396232_510995692382831",
        "can_remove": false,
        "created_time": "2015-07-02T20:21:42+0000",
        "from": {
          "id": "10152335253846061",
          "name": "Abdur Rahman"
        },
        "like_count": 1,
        "message": "Imran Ahmed Kabir.. reminded me of you.. :)",
        "message_tags": [
          {
            "id": "618028994980706",
            "length": 17,
            "name": "Imran Ahmed Kabir",
            "offset": 0,
            "type": "user"
          }
        ],
        "user_likes": false
      },
      {
        "id": "510861682396232_510864145729319",
        "can_remove": false,
        "created_time": "2015-07-02T13:29:51+0000",
        "from": {
          "id": "1464500297170733",
          "name": "Javairia"
        },
        "like_count": 0,
        "message": "👍👍",
        "user_likes": false
      },
      {
        "id": "510861682396232_510883789060688",
        "can_remove": false,
        "created_time": "2015-07-02T14:49:31+0000",
        "from": {
          "id": "776257815744467",
          "name": "Ajit Dash"
        },
        "like_count": 0,
        "message": "love",
        "user_likes": false
      },
      {
        "id": "510861682396232_512408228908244",
        "can_remove": false,
        "created_time": "2015-07-05T02:46:38+0000",
        "from": {
          "id": "1470471353182196",
          "name": "Frankie Frank"
        },
        "like_count": 0,
        "message": "Bickle for prez",
        "user_likes": false
      },
      {
        "id": "510861682396232_510863225729411",
        "can_remove": false,
        "created_time": "2015-07-02T13:25:38+0000",
        "from": {
          "id": "822440681111995",
          "name": "Sudhakar Ganta"
        },
        "like_count": 0,
        "message": "(y)",
        "user_likes": false
      }
    ],
    "paging": {
      "cursors": {
        "before": "MzUZD",
        "after": "MTAZD"
      },
      "next": "https://graph.facebook.com/510861682396232/comments?pretty=0&limit=25&after=MTAZD"
    }
  },
  "likes": {
    "data": [
      {
        "id": "743920429019609",
        "name": "Sarah Iqbal"
      },
      {
        "id": "534528106675219",
        "name": "Zoran Penezic"
      },
      {
        "id": "10201869507681454",
        "name": "Chinmoy Barman Spandan"
      },
      {
        "id": "851572634895026",
        "name": "Virendra Kagalkar"
      },
      {
        "id": "530629100411776",
        "name": "FAheema Kc Farooq"
      },
      {
        "id": "384759068315717",
        "name": "Zahra Khan Afridi"
      },
      {
        "id": "10203387653506753",
        "name": "Ivan Lovriša"
      },
      {
        "id": "557266761053204",
        "name": "Mateo Corak"
      },
      {
        "id": "10152146686597447",
        "name": "Sajja Shah"
      },
      {
        "id": "926483860697503",
        "name": "Babu Khan"
      },
      {
        "id": "10202079419415531",
        "name": "Mohini Mukherjee"
      },
      {
        "id": "860608880684430",
        "name": "Prawin KaLyan"
      },
      {
        "id": "720535944665813",
        "name": "Arpit Gautam"
      },
      {
        "id": "639925812783517",
        "name": "KaVya Krishna"
      },
      {
        "id": "863236663736246",
        "name": "Misha Rizvi"
      },
      {
        "id": "924716320894253",
        "name": "Fathi Ismail"
      },
      {
        "id": "685818311495251",
        "name": "Diana Todica"
      },
      {
        "id": "10200855999642153",
        "name": "Aleezeh Shahid"
      },
      {
        "id": "1411644219060288",
        "name": "Himanshu Singh"
      },
      {
        "id": "807776212624483",
        "name": "Sabarni Sanyal"
      },
      {
        "id": "685518758192080",
        "name": "Souptik Das"
      },
      {
        "id": "844672828892549",
        "name": "Hamza Ijaz"
      },
      {
        "id": "662990790456478",
        "name": "Ahnaf Ismat Tasin"
      },
      {
        "id": "350044315158636",
        "name": "Akshay Jajoo"
      },
      {
        "id": "316781491803343",
        "name": "Kanwal Khurshid"
      }
    ],
    "paging": {
      "cursors": {
        "before": "NzQzOTIwNDI5MDE5NjA5",
        "after": "MzE2NzgxNDkxODAzMzQz"
      },
      "next": "https://graph.facebook.com/510861682396232/likes?pretty=0&limit=25&after=MzE2NzgxNDkxODAzMzQz"
    }
  }
}
